{
  "authServer": "https://auth.metapipe.vagrant.test/oauth2",
  "jobsEndpoint": "https://jobs.metapipe.vagrant.test",
  "datasetEndpoint": "https://storage.metapipe.vagrant.test",
  "incomingHostname": "incoming.metapipe.vagrant.test",
  "uploadEndpoint": "https://upload.metapipe.vagrant.test/api/frontend/request_upload"
}
